集積回路工学/6bitCPU/Q3/cpu.vcd
$date
	Fri Jul 16 23:26:24 2021
$end
$version
	Icarus Verilog
$end
$timescale
	1s
$end
$scope module testbench $end
$var wire 6 ! Oout [5:0] $end
$var reg 1 " CK $end
$var reg 6 # in [5:0] $end
$scope module ToyCPU_6bit $end
$var wire 1 " CK $end
$var wire 6 $ in [5:0] $end
$var wire 10 % op_im [9:0] $end
$var wire 1 & cFlag $end
$var wire 6 ' address [5:0] $end
$var wire 6 ( Y [5:0] $end
$var wire 2 ) S [1:0] $end
$var wire 6 * Oout [5:0] $end
$var wire 4 + OP [3:0] $end
$var wire 1 , LD_out $end
$var wire 1 - LD_PC $end
$var wire 1 . LD_B $end
$var wire 1 / LD_A $end
$var wire 6 0 IM [5:0] $end
$var wire 6 1 Bout [5:0] $end
$var wire 6 2 BUS [5:0] $end
$var wire 6 3 Aout [5:0] $end
$var reg 6 4 EX_BUSreg [5:0] $end
$var reg 1 5 EX_LDAreg $end
$var reg 1 6 EX_LDBreg $end
$var reg 1 7 EX_LDPCreg $end
$var reg 1 8 EX_LDoutreg $end
$var reg 6 9 ID_IMreg [5:0] $end
$var reg 1 : ID_LDAreg $end
$var reg 1 ; ID_LDBreg $end
$var reg 1 < ID_LDPCreg $end
$var reg 1 = ID_LDoutreg $end
$var reg 2 > ID_Sreg [1:0] $end
$var reg 6 ? IF_IMreg [5:0] $end
$var reg 4 @ IF_OPreg [3:0] $end
$scope module alu $end
$var wire 6 A IM [5:0] $end
$var wire 1 & cFlag $end
$var wire 7 B add [6:0] $end
$var wire 6 C Y [5:0] $end
$var wire 6 D BUS [5:0] $end
$upscope $end
$scope module decoder $end
$var wire 1 & Dcf $end
$var wire 4 E OP [3:0] $end
$var wire 2 F S [1:0] $end
$var wire 1 , LD_out $end
$var wire 1 - LD_PC $end
$var wire 1 . LD_B $end
$var wire 1 / LD_A $end
$upscope $end
$scope module memory $end
$var wire 10 G Q [9:0] $end
$var wire 6 H AD [5:0] $end
$upscope $end
$scope module programCounter $end
$var wire 6 I AD [5:0] $end
$var wire 1 " CK $end
$var wire 1 7 LD_PC $end
$var wire 6 J OUT [5:0] $end
$var reg 6 K q [5:0] $end
$upscope $end
$scope module registers $end
$var wire 6 L BUS [5:0] $end
$var wire 1 " CK $end
$var wire 1 5 LD_A $end
$var wire 1 6 LD_B $end
$var wire 1 8 LD_out $end
$var wire 6 M O_out [5:0] $end
$var wire 6 N B_out [5:0] $end
$var wire 6 O A_out [5:0] $end
$scope module A_register $end
$var wire 6 P BUS [5:0] $end
$var wire 1 " CK $end
$var wire 1 5 LD $end
$var wire 6 Q OUT [5:0] $end
$var reg 6 R q [5:0] $end
$upscope $end
$scope module B_register $end
$var wire 6 S BUS [5:0] $end
$var wire 1 " CK $end
$var wire 1 6 LD $end
$var wire 6 T OUT [5:0] $end
$var reg 6 U q [5:0] $end
$upscope $end
$scope module output_register $end
$var wire 6 V BUS [5:0] $end
$var wire 1 " CK $end
$var wire 1 8 LD $end
$var wire 6 W OUT [5:0] $end
$var reg 6 X q [5:0] $end
$upscope $end
$upscope $end
$scope module selector $end
$var wire 6 Y C0 [5:0] $end
$var wire 6 Z C1 [5:0] $end
$var wire 6 [ C2 [5:0] $end
$var wire 6 \ C3 [5:0] $end
$var wire 2 ] S [1:0] $end
$var wire 6 ^ Y [5:0] $end
$upscope $end
$upscope $end
$upscope $end
$enddefinitions $end
#0
$dumpvars
b0 ^
b0 ]
b0 \
b101 [
b0 Z
b0 Y
b0 X
b0 W
b0 V
b0 U
b0 T
b0 S
b0 R
b0 Q
b0 P
b0 O
b0 N
b0 M
b0 L
b0 K
b0 J
b0 I
b0 H
b1000111100 G
b0 F
b0 E
b0 D
b0 C
b0 B
b0 A
b0 @
b0 ?
b0 >
0=
0<
0;
0:
b0 9
08
07
06
05
b0 4
b0 3
b0 2
b0 1
b111100 0
0/
0.
0-
0,
b1000 +
b0 *
b0 )
b0 (
b0 '
0&
b1000111100 %
b101 $
b101 #
0"
b0 !
$end
#1
b0 +
1.
b0 0
b11 )
b11 F
b0 %
b0 G
b1 '
b1 H
b1 J
b1 K
b111100 ?
b1000 @
b1000 E
1"
#2
0"
#3
0.
b110 +
b111100 2
b111100 D
b0 )
b0 F
b1 0
b111100 B
b111100 9
b111100 A
b11 >
b11 ]
1;
b0 ?
b0 @
b0 E
b110000001 %
b110000001 G
b10 '
b10 H
b10 J
b10 K
1"
#4
0"
#5
b1100 +
1.
b10 0
b0 2
b0 D
b1 )
b1 F
b1100000010 %
b1100000010 G
b11 '
b11 H
b11 J
b11 K
16
b111100 4
b111100 I
b111100 L
b111100 P
b111100 S
b111100 V
b0 B
b0 9
b0 A
b0 >
b0 ]
0;
b1 ?
b110 @
b110 E
1"
#6
0"
#7
0.
1-
b0 +
b111101 2
b111101 D
b111100 (
b111100 C
b111100 ^
b11 )
b11 F
b0 0
06
b0 4
b0 I
b0 L
b0 P
b0 S
b0 V
b111101 B
b1 9
b1 A
b1 >
b1 ]
1;
b10 ?
b1100 @
b1100 E
b0 %
b0 G
b100 '
b100 H
b100 J
b100 K
b111100 1
b111100 N
b111100 T
b111100 U
b111100 Z
1"
#8
0"
#9
b0 (
b0 C
b0 ^
0-
b10 2
b10 D
b0 )
b0 F
b101 '
b101 H
b101 J
b101 K
16
b111101 4
b111101 I
b111101 L
b111101 P
b111101 S
b111101 V
b10 B
b10 9
b10 A
b11 >
b11 ]
1<
0;
b0 ?
b0 @
b0 E
1"
#10
0"
#11
b0 2
b0 D
17
06
b10 4
b10 I
b10 L
b10 P
b10 S
b10 V
b0 B
b0 9
b0 A
b0 >
b0 ]
0<
b110 '
b110 H
b110 J
b110 K
b111101 1
b111101 N
b111101 T
b111101 U
b111101 Z
1"
#12
0"
#13
b110 +
b1 0
b110000001 %
b110000001 G
b10 '
b10 H
b10 J
b10 K
07
b0 4
b0 I
b0 L
b0 P
b0 S
b0 V
1"
#14
0"
#15
1.
b1100 +
b1 )
b1 F
b10 0
b1 ?
b110 @
b110 E
b1100000010 %
b1100000010 G
b11 '
b11 H
b11 J
b11 K
1"
#16
0"
#17
b0 +
0.
1-
b0 0
b111110 2
b111110 D
b111101 (
b111101 C
b111101 ^
b11 )
b11 F
b0 %
b0 G
b100 '
b100 H
b100 J
b100 K
b111110 B
b1 9
b1 A
b1 >
b1 ]
1;
b10 ?
b1100 @
b1100 E
1"
#18
0"
#19
b0 (
b0 C
b0 ^
0-
b10 2
b10 D
b0 )
b0 F
16
b111110 4
b111110 I
b111110 L
b111110 P
b111110 S
b111110 V
b10 B
b10 9
b10 A
b11 >
b11 ]
1<
0;
b0 ?
b0 @
b0 E
b101 '
b101 H
b101 J
b101 K
1"
#20
0"
#21
b0 2
b0 D
b111110 1
b111110 N
b111110 T
b111110 U
b111110 Z
b110 '
b110 H
b110 J
b110 K
17
06
b10 4
b10 I
b10 L
b10 P
b10 S
b10 V
b0 B
b0 9
b0 A
b0 >
b0 ]
0<
1"
#22
0"
#23
b110 +
b1 0
07
b0 4
b0 I
b0 L
b0 P
b0 S
b0 V
b110000001 %
b110000001 G
b10 '
b10 H
b10 J
b10 K
1"
#24
0"
#25
b1100 +
1.
b10 0
b1 )
b1 F
b1100000010 %
b1100000010 G
b11 '
b11 H
b11 J
b11 K
b1 ?
b110 @
b110 E
1"
#26
0"
#27
0.
1-
b0 +
b111111 2
b111111 D
b111110 (
b111110 C
b111110 ^
b11 )
b11 F
b0 0
b111111 B
b1 9
b1 A
b1 >
b1 ]
1;
b10 ?
b1100 @
b1100 E
b0 %
b0 G
b100 '
b100 H
b100 J
b100 K
1"
#28
0"
#29
b0 (
b0 C
b0 ^
0-
b10 2
b10 D
0&
b0 )
b0 F
b101 '
b101 H
b101 J
b101 K
16
b111111 4
b111111 I
b111111 L
b111111 P
b111111 S
b111111 V
b10 B
b10 9
b10 A
b11 >
b11 ]
1<
0;
b0 ?
b0 @
b0 E
1"
#30
0"
#31
b0 2
b0 D
17
06
b10 4
b10 I
b10 L
b10 P
b10 S
b10 V
b0 B
b0 9
b0 A
b0 >
b0 ]
0<
b110 '
b110 H
b110 J
b110 K
b111111 1
b111111 N
b111111 T
b111111 U
b111111 Z
1"
#32
0"
#33
b110 +
b1 0
b110000001 %
b110000001 G
b10 '
b10 H
b10 J
b10 K
07
b0 4
b0 I
b0 L
b0 P
b0 S
b0 V
1"
#34
0"
#35
1.
b1100 +
b1 )
b1 F
b10 0
b1 ?
b110 @
b110 E
b1100000010 %
b1100000010 G
b11 '
b11 H
b11 J
b11 K
1"
#36
0"
#37
b0 +
1&
0.
0-
b0 0
b111111 (
b111111 C
b111111 ^
b0 )
b0 F
b0 %
b0 G
b100 '
b100 H
b100 J
b100 K
b1000000 B
b1 9
b1 A
b1 >
b1 ]
1;
b10 ?
b1100 @
b1100 E
1"
#38
0"
#39
0&
b10 2
b10 D
b0 (
b0 C
b0 ^
16
b10 B
b10 9
b10 A
b0 >
b0 ]
0;
b0 ?
b0 @
b0 E
b101 '
b101 H
b101 J
b101 K
1"
#40
0"
#41
b0 2
b0 D
b0 1
b0 N
b0 T
b0 U
b0 Z
b110 '
b110 H
b110 J
b110 K
06
b10 4
b10 I
b10 L
b10 P
b10 S
b10 V
b0 B
b0 9
b0 A
1"
#42
0"
#43
b1011 +
b111 0
b0 4
b0 I
b0 L
b0 P
b0 S
b0 V
b1011000111 %
b1011000111 G
b111 '
b111 H
b111 J
b111 K
1"
#44
0"
#45
b0 +
1-
b0 0
b11 )
b11 F
b0 %
b0 G
b1000 '
b1000 H
b1000 J
b1000 K
b111 ?
b1011 @
b1011 E
1"
#46
0"
#47
0-
b111 2
b111 D
b0 )
b0 F
b111 B
b111 9
b111 A
b11 >
b11 ]
1<
b0 ?
b0 @
b0 E
b1001 '
b1001 H
b1001 J
b1001 K
1"
#48
0"
#49
b0 2
b0 D
b1010 '
b1010 H
b1010 J
b1010 K
17
b111 4
b111 I
b111 L
b111 P
b111 S
b111 V
b0 B
b0 9
b0 A
b0 >
b0 ]
0<
1"
#50
0"
#51
b1011 +
b111 0
07
b0 4
b0 I
b0 L
b0 P
b0 S
b0 V
b1011000111 %
b1011000111 G
b111 '
b111 H
b111 J
b111 K
1"
#52
0"
#53
b0 +
1-
b0 0
b11 )
b11 F
b0 %
b0 G
b1000 '
b1000 H
b1000 J
b1000 K
b111 ?
b1011 @
b1011 E
1"
#54
0"
#55
0-
b111 2
b111 D
b0 )
b0 F
b111 B
b111 9
b111 A
b11 >
b11 ]
1<
b0 ?
b0 @
b0 E
b1001 '
b1001 H
b1001 J
b1001 K
1"
#56
0"
#57
b0 2
b0 D
b1010 '
b1010 H
b1010 J
b1010 K
17
b111 4
b111 I
b111 L
b111 P
b111 S
b111 V
b0 B
b0 9
b0 A
b0 >
b0 ]
0<
1"
#58
0"
#59
b1011 +
b111 0
07
b0 4
b0 I
b0 L
b0 P
b0 S
b0 V
b1011000111 %
b1011000111 G
b111 '
b111 H
b111 J
b111 K
1"
#60
0"
#61
b0 +
1-
b0 0
b11 )
b11 F
b0 %
b0 G
b1000 '
b1000 H
b1000 J
b1000 K
b111 ?
b1011 @
b1011 E
1"
#62
0"
#63
0-
b111 2
b111 D
b0 )
b0 F
b111 B
b111 9
b111 A
b11 >
b11 ]
1<
b0 ?
b0 @
b0 E
b1001 '
b1001 H
b1001 J
b1001 K
1"
#64
0"
#65
b0 2
b0 D
b1010 '
b1010 H
b1010 J
b1010 K
17
b111 4
b111 I
b111 L
b111 P
b111 S
b111 V
b0 B
b0 9
b0 A
b0 >
b0 ]
0<
1"
#66
0"
#67
b1011 +
b111 0
07
b0 4
b0 I
b0 L
b0 P
b0 S
b0 V
b1011000111 %
b1011000111 G
b111 '
b111 H
b111 J
b111 K
1"
#68
0"
#69
b0 +
1-
b0 0
b11 )
b11 F
b0 %
b0 G
b1000 '
b1000 H
b1000 J
b1000 K
b111 ?
b1011 @
b1011 E
1"
#70
0"
#71
0-
b111 2
b111 D
b0 )
b0 F
b111 B
b111 9
b111 A
b11 >
b11 ]
1<
b0 ?
b0 @
b0 E
b1001 '
b1001 H
b1001 J
b1001 K
1"
#72
0"
#73
b0 2
b0 D
b1010 '
b1010 H
b1010 J
b1010 K
17
b111 4
b111 I
b111 L
b111 P
b111 S
b111 V
b0 B
b0 9
b0 A
b0 >
b0 ]
0<
1"
#74
0"
#75
b1011 +
b111 0
07
b0 4
b0 I
b0 L
b0 P
b0 S
b0 V
b1011000111 %
b1011000111 G
b111 '
b111 H
b111 J
b111 K
1"
#76
0"
#77
b0 +
1-
b0 0
b11 )
b11 F
b0 %
b0 G
b1000 '
b1000 H
b1000 J
b1000 K
b111 ?
b1011 @
b1011 E
1"
#78
0"
#79
0-
b111 2
b111 D
b0 )
b0 F
b111 B
b111 9
b111 A
b11 >
b11 ]
1<
b0 ?
b0 @
b0 E
b1001 '
b1001 H
b1001 J
b1001 K
1"
#80
0"
#81
b0 2
b0 D
b1010 '
b1010 H
b1010 J
b1010 K
17
b111 4
b111 I
b111 L
b111 P
b111 S
b111 V
b0 B
b0 9
b0 A
b0 >
b0 ]
0<
1"
#82
0"
#83
b1011 +
b111 0
07
b0 4
b0 I
b0 L
b0 P
b0 S
b0 V
b1011000111 %
b1011000111 G
b111 '
b111 H
b111 J
b111 K
1"
#84
0"
#85
b0 +
1-
b0 0
b11 )
b11 F
b0 %
b0 G
b1000 '
b1000 H
b1000 J
b1000 K
b111 ?
b1011 @
b1011 E
1"
#86
0"
#87
0-
b111 2
b111 D
b0 )
b0 F
b111 B
b111 9
b111 A
b11 >
b11 ]
1<
b0 ?
b0 @
b0 E
b1001 '
b1001 H
b1001 J
b1001 K
1"
#88
0"
#89
b0 2
b0 D
b1010 '
b1010 H
b1010 J
b1010 K
17
b111 4
b111 I
b111 L
b111 P
b111 S
b111 V
b0 B
b0 9
b0 A
b0 >
b0 ]
0<
1"
#90
0"
#91
b1011 +
b111 0
07
b0 4
b0 I
b0 L
b0 P
b0 S
b0 V
b1011000111 %
b1011000111 G
b111 '
b111 H
b111 J
b111 K
1"
#92
0"
#93
b0 +
1-
b0 0
b11 )
b11 F
b0 %
b0 G
b1000 '
b1000 H
b1000 J
b1000 K
b111 ?
b1011 @
b1011 E
1"
#94
0"
#95
0-
b111 2
b111 D
b0 )
b0 F
b111 B
b111 9
b111 A
b11 >
b11 ]
1<
b0 ?
b0 @
b0 E
b1001 '
b1001 H
b1001 J
b1001 K
1"
#96
0"
#97
b0 2
b0 D
b1010 '
b1010 H
b1010 J
b1010 K
17
b111 4
b111 I
b111 L
b111 P
b111 S
b111 V
b0 B
b0 9
b0 A
b0 >
b0 ]
0<
1"
#98
0"
#99
b1011 +
b111 0
07
b0 4
b0 I
b0 L
b0 P
b0 S
b0 V
b1011000111 %
b1011000111 G
b111 '
b111 H
b111 J
b111 K
1"
#100
0"
#101
b0 +
1-
b0 0
b11 )
b11 F
b0 %
b0 G
b1000 '
b1000 H
b1000 J
b1000 K
b111 ?
b1011 @
b1011 E
1"
#102
0"
#103
0-
b111 2
b111 D
b0 )
b0 F
b111 B
b111 9
b111 A
b11 >
b11 ]
1<
b0 ?
b0 @
b0 E
b1001 '
b1001 H
b1001 J
b1001 K
1"
#104
0"
#105
b0 2
b0 D
b1010 '
b1010 H
b1010 J
b1010 K
17
b111 4
b111 I
b111 L
b111 P
b111 S
b111 V
b0 B
b0 9
b0 A
b0 >
b0 ]
0<
1"
#106
0"
#107
b1011 +
b111 0
07
b0 4
b0 I
b0 L
b0 P
b0 S
b0 V
b1011000111 %
b1011000111 G
b111 '
b111 H
b111 J
b111 K
1"
#108
0"
#109
b0 +
1-
b0 0
b11 )
b11 F
b0 %
b0 G
b1000 '
b1000 H
b1000 J
b1000 K
b111 ?
b1011 @
b1011 E
1"
#110
0"
#111
0-
b111 2
b111 D
b0 )
b0 F
b111 B
b111 9
b111 A
b11 >
b11 ]
1<
b0 ?
b0 @
b0 E
b1001 '
b1001 H
b1001 J
b1001 K
1"
#112
0"
#113
b0 2
b0 D
b1010 '
b1010 H
b1010 J
b1010 K
17
b111 4
b111 I
b111 L
b111 P
b111 S
b111 V
b0 B
b0 9
b0 A
b0 >
b0 ]
0<
1"
#114
0"
#115
b1011 +
b111 0
07
b0 4
b0 I
b0 L
b0 P
b0 S
b0 V
b1011000111 %
b1011000111 G
b111 '
b111 H
b111 J
b111 K
1"
#116
0"
#117
b0 +
1-
b0 0
b11 )
b11 F
b0 %
b0 G
b1000 '
b1000 H
b1000 J
b1000 K
b111 ?
b1011 @
b1011 E
1"
#118
0"
#119
0-
b111 2
b111 D
b0 )
b0 F
b111 B
b111 9
b111 A
b11 >
b11 ]
1<
b0 ?
b0 @
b0 E
b1001 '
b1001 H
b1001 J
b1001 K
1"
#120
0"
#121
b0 2
b0 D
b1010 '
b1010 H
b1010 J
b1010 K
17
b111 4
b111 I
b111 L
b111 P
b111 S
b111 V
b0 B
b0 9
b0 A
b0 >
b0 ]
0<
1"
#122
0"
#123
b1011 +
b111 0
07
b0 4
b0 I
b0 L
b0 P
b0 S
b0 V
b1011000111 %
b1011000111 G
b111 '
b111 H
b111 J
b111 K
1"
#124
0"
#125
b0 +
1-
b0 0
b11 )
b11 F
b0 %
b0 G
b1000 '
b1000 H
b1000 J
b1000 K
b111 ?
b1011 @
b1011 E
1"
#126
0"
#127
0-
b111 2
b111 D
b0 )
b0 F
b111 B
b111 9
b111 A
b11 >
b11 ]
1<
b0 ?
b0 @
b0 E
b1001 '
b1001 H
b1001 J
b1001 K
1"
#128
0"
#129
b0 2
b0 D
b1010 '
b1010 H
b1010 J
b1010 K
17
b111 4
b111 I
b111 L
b111 P
b111 S
b111 V
b0 B
b0 9
b0 A
b0 >
b0 ]
0<
1"
#130
0"
#131
b1011 +
b111 0
07
b0 4
b0 I
b0 L
b0 P
b0 S
b0 V
b1011000111 %
b1011000111 G
b111 '
b111 H
b111 J
b111 K
1"
#132
0"
#133
b0 +
1-
b0 0
b11 )
b11 F
b0 %
b0 G
b1000 '
b1000 H
b1000 J
b1000 K
b111 ?
b1011 @
b1011 E
1"
#134
0"
#135
0-
b111 2
b111 D
b0 )
b0 F
b111 B
b111 9
b111 A
b11 >
b11 ]
1<
b0 ?
b0 @
b0 E
b1001 '
b1001 H
b1001 J
b1001 K
1"
#136
0"
#137
b0 2
b0 D
b1010 '
b1010 H
b1010 J
b1010 K
17
b111 4
b111 I
b111 L
b111 P
b111 S
b111 V
b0 B
b0 9
b0 A
b0 >
b0 ]
0<
1"
#138
0"
#139
b1011 +
b111 0
07
b0 4
b0 I
b0 L
b0 P
b0 S
b0 V
b1011000111 %
b1011000111 G
b111 '
b111 H
b111 J
b111 K
1"
#140
0"
#141
b0 +
1-
b0 0
b11 )
b11 F
b0 %
b0 G
b1000 '
b1000 H
b1000 J
b1000 K
b111 ?
b1011 @
b1011 E
1"
#142
0"
#143
0-
b111 2
b111 D
b0 )
b0 F
b111 B
b111 9
b111 A
b11 >
b11 ]
1<
b0 ?
b0 @
b0 E
b1001 '
b1001 H
b1001 J
b1001 K
1"
#144
0"
#145
b0 2
b0 D
b1010 '
b1010 H
b1010 J
b1010 K
17
b111 4
b111 I
b111 L
b111 P
b111 S
b111 V
b0 B
b0 9
b0 A
b0 >
b0 ]
0<
1"
#146
0"
#147
b1011 +
b111 0
07
b0 4
b0 I
b0 L
b0 P
b0 S
b0 V
b1011000111 %
b1011000111 G
b111 '
b111 H
b111 J
b111 K
1"
#148
0"
#149
b0 +
1-
b0 0
b11 )
b11 F
b0 %
b0 G
b1000 '
b1000 H
b1000 J
b1000 K
b111 ?
b1011 @
b1011 E
1"
#150
0"
#151
0-
b111 2
b111 D
b0 )
b0 F
b111 B
b111 9
b111 A
b11 >
b11 ]
1<
b0 ?
b0 @
b0 E
b1001 '
b1001 H
b1001 J
b1001 K
1"
#152
0"
#153
b0 2
b0 D
b1010 '
b1010 H
b1010 J
b1010 K
17
b111 4
b111 I
b111 L
b111 P
b111 S
b111 V
b0 B
b0 9
b0 A
b0 >
b0 ]
0<
1"
#154
0"
#155
b1011 +
b111 0
07
b0 4
b0 I
b0 L
b0 P
b0 S
b0 V
b1011000111 %
b1011000111 G
b111 '
b111 H
b111 J
b111 K
1"
#156
0"
#157
b0 +
1-
b0 0
b11 )
b11 F
b0 %
b0 G
b1000 '
b1000 H
b1000 J
b1000 K
b111 ?
b1011 @
b1011 E
1"
#158
0"
#159
0-
b111 2
b111 D
b0 )
b0 F
b111 B
b111 9
b111 A
b11 >
b11 ]
1<
b0 ?
b0 @
b0 E
b1001 '
b1001 H
b1001 J
b1001 K
1"
#160
0"
#161
b0 2
b0 D
b1010 '
b1010 H
b1010 J
b1010 K
17
b111 4
b111 I
b111 L
b111 P
b111 S
b111 V
b0 B
b0 9
b0 A
b0 >
b0 ]
0<
1"
#162
0"
#163
b1011 +
b111 0
07
b0 4
b0 I
b0 L
b0 P
b0 S
b0 V
b1011000111 %
b1011000111 G
b111 '
b111 H
b111 J
b111 K
1"
#164
0"
#165
b0 +
1-
b0 0
b11 )
b11 F
b0 %
b0 G
b1000 '
b1000 H
b1000 J
b1000 K
b111 ?
b1011 @
b1011 E
1"
#166
0"
#167
0-
b111 2
b111 D
b0 )
b0 F
b111 B
b111 9
b111 A
b11 >
b11 ]
1<
b0 ?
b0 @
b0 E
b1001 '
b1001 H
b1001 J
b1001 K
1"
#168
0"
#169
b0 2
b0 D
b1010 '
b1010 H
b1010 J
b1010 K
17
b111 4
b111 I
b111 L
b111 P
b111 S
b111 V
b0 B
b0 9
b0 A
b0 >
b0 ]
0<
1"
#170
0"
#171
b1011 +
b111 0
07
b0 4
b0 I
b0 L
b0 P
b0 S
b0 V
b1011000111 %
b1011000111 G
b111 '
b111 H
b111 J
b111 K
1"
#172
0"
#173
b0 +
1-
b0 0
b11 )
b11 F
b0 %
b0 G
b1000 '
b1000 H
b1000 J
b1000 K
b111 ?
b1011 @
b1011 E
1"
#174
0"
#175
0-
b111 2
b111 D
b0 )
b0 F
b111 B
b111 9
b111 A
b11 >
b11 ]
1<
b0 ?
b0 @
b0 E
b1001 '
b1001 H
b1001 J
b1001 K
1"
#176
0"
#177
b0 2
b0 D
b1010 '
b1010 H
b1010 J
b1010 K
17
b111 4
b111 I
b111 L
b111 P
b111 S
b111 V
b0 B
b0 9
b0 A
b0 >
b0 ]
0<
1"
#178
0"
#179
b1011 +
b111 0
07
b0 4
b0 I
b0 L
b0 P
b0 S
b0 V
b1011000111 %
b1011000111 G
b111 '
b111 H
b111 J
b111 K
1"
#180
0"
#181
b0 +
1-
b0 0
b11 )
b11 F
b0 %
b0 G
b1000 '
b1000 H
b1000 J
b1000 K
b111 ?
b1011 @
b1011 E
1"
#182
0"
#183
0-
b111 2
b111 D
b0 )
b0 F
b111 B
b111 9
b111 A
b11 >
b11 ]
1<
b0 ?
b0 @
b0 E
b1001 '
b1001 H
b1001 J
b1001 K
1"
#184
0"
#185
b0 2
b0 D
b1010 '
b1010 H
b1010 J
b1010 K
17
b111 4
b111 I
b111 L
b111 P
b111 S
b111 V
b0 B
b0 9
b0 A
b0 >
b0 ]
0<
1"
#186
0"
#187
b1011 +
b111 0
07
b0 4
b0 I
b0 L
b0 P
b0 S
b0 V
b1011000111 %
b1011000111 G
b111 '
b111 H
b111 J
b111 K
1"
#188
0"
#189
b0 +
1-
b0 0
b11 )
b11 F
b0 %
b0 G
b1000 '
b1000 H
b1000 J
b1000 K
b111 ?
b1011 @
b1011 E
1"
#190
0"
#191
0-
b111 2
b111 D
b0 )
b0 F
b111 B
b111 9
b111 A
b11 >
b11 ]
1<
b0 ?
b0 @
b0 E
b1001 '
b1001 H
b1001 J
b1001 K
1"
#192
0"
#193
b0 2
b0 D
b1010 '
b1010 H
b1010 J
b1010 K
17
b111 4
b111 I
b111 L
b111 P
b111 S
b111 V
b0 B
b0 9
b0 A
b0 >
b0 ]
0<
1"
#194
0"
#195
b1011 +
b111 0
07
b0 4
b0 I
b0 L
b0 P
b0 S
b0 V
b1011000111 %
b1011000111 G
b111 '
b111 H
b111 J
b111 K
1"
#196
0"
#197
b0 +
1-
b0 0
b11 )
b11 F
b0 %
b0 G
b1000 '
b1000 H
b1000 J
b1000 K
b111 ?
b1011 @
b1011 E
1"
#198
0"
#199
0-
b111 2
b111 D
b0 )
b0 F
b111 B
b111 9
b111 A
b11 >
b11 ]
1<
b0 ?
b0 @
b0 E
b1001 '
b1001 H
b1001 J
b1001 K
1"
#200
0"
#201
b0 2
b0 D
b1010 '
b1010 H
b1010 J
b1010 K
17
b111 4
b111 I
b111 L
b111 P
b111 S
b111 V
b0 B
b0 9
b0 A
b0 >
b0 ]
0<
1"
#202
0"
#203
b1011 +
b111 0
07
b0 4
b0 I
b0 L
b0 P
b0 S
b0 V
b1011000111 %
b1011000111 G
b111 '
b111 H
b111 J
b111 K
1"
#204
0"
#205
b0 +
1-
b0 0
b11 )
b11 F
b0 %
b0 G
b1000 '
b1000 H
b1000 J
b1000 K
b111 ?
b1011 @
b1011 E
1"
#206
0"
#207
0-
b111 2
b111 D
b0 )
b0 F
b111 B
b111 9
b111 A
b11 >
b11 ]
1<
b0 ?
b0 @
b0 E
b1001 '
b1001 H
b1001 J
b1001 K
1"
#208
0"
#209
b0 2
b0 D
b1010 '
b1010 H
b1010 J
b1010 K
17
b111 4
b111 I
b111 L
b111 P
b111 S
b111 V
b0 B
b0 9
b0 A
b0 >
b0 ]
0<
1"
#210
0"
#211
b1011 +
b111 0
07
b0 4
b0 I
b0 L
b0 P
b0 S
b0 V
b1011000111 %
b1011000111 G
b111 '
b111 H
b111 J
b111 K
1"
#212
0"
#213
b0 +
1-
b0 0
b11 )
b11 F
b0 %
b0 G
b1000 '
b1000 H
b1000 J
b1000 K
b111 ?
b1011 @
b1011 E
1"
#214
0"
#215
0-
b111 2
b111 D
b0 )
b0 F
b111 B
b111 9
b111 A
b11 >
b11 ]
1<
b0 ?
b0 @
b0 E
b1001 '
b1001 H
b1001 J
b1001 K
1"
#216
0"
#217
b0 2
b0 D
b1010 '
b1010 H
b1010 J
b1010 K
17
b111 4
b111 I
b111 L
b111 P
b111 S
b111 V
b0 B
b0 9
b0 A
b0 >
b0 ]
0<
1"
#218
0"
#219
b1011 +
b111 0
07
b0 4
b0 I
b0 L
b0 P
b0 S
b0 V
b1011000111 %
b1011000111 G
b111 '
b111 H
b111 J
b111 K
1"
#220
0"
#221
b0 +
1-
b0 0
b11 )
b11 F
b0 %
b0 G
b1000 '
b1000 H
b1000 J
b1000 K
b111 ?
b1011 @
b1011 E
1"
#222
0"
#223
0-
b111 2
b111 D
b0 )
b0 F
b111 B
b111 9
b111 A
b11 >
b11 ]
1<
b0 ?
b0 @
b0 E
b1001 '
b1001 H
b1001 J
b1001 K
1"
#224
0"
#225
b0 2
b0 D
b1010 '
b1010 H
b1010 J
b1010 K
17
b111 4
b111 I
b111 L
b111 P
b111 S
b111 V
b0 B
b0 9
b0 A
b0 >
b0 ]
0<
1"
#226
0"
#227
b1011 +
b111 0
07
b0 4
b0 I
b0 L
b0 P
b0 S
b0 V
b1011000111 %
b1011000111 G
b111 '
b111 H
b111 J
b111 K
1"
#228
0"
#229
b0 +
1-
b0 0
b11 )
b11 F
b0 %
b0 G
b1000 '
b1000 H
b1000 J
b1000 K
b111 ?
b1011 @
b1011 E
1"
#230
0"
#231
0-
b111 2
b111 D
b0 )
b0 F
b111 B
b111 9
b111 A
b11 >
b11 ]
1<
b0 ?
b0 @
b0 E
b1001 '
b1001 H
b1001 J
b1001 K
1"
#232
0"
#233
b0 2
b0 D
b1010 '
b1010 H
b1010 J
b1010 K
17
b111 4
b111 I
b111 L
b111 P
b111 S
b111 V
b0 B
b0 9
b0 A
b0 >
b0 ]
0<
1"
#234
0"
#235
b1011 +
b111 0
07
b0 4
b0 I
b0 L
b0 P
b0 S
b0 V
b1011000111 %
b1011000111 G
b111 '
b111 H
b111 J
b111 K
1"
#236
0"
#237
b0 +
1-
b0 0
b11 )
b11 F
b0 %
b0 G
b1000 '
b1000 H
b1000 J
b1000 K
b111 ?
b1011 @
b1011 E
1"
#238
0"
#239
0-
b111 2
b111 D
b0 )
b0 F
b111 B
b111 9
b111 A
b11 >
b11 ]
1<
b0 ?
b0 @
b0 E
b1001 '
b1001 H
b1001 J
b1001 K
1"
#240
0"
#241
b0 2
b0 D
b1010 '
b1010 H
b1010 J
b1010 K
17
b111 4
b111 I
b111 L
b111 P
b111 S
b111 V
b0 B
b0 9
b0 A
b0 >
b0 ]
0<
1"
#242
0"
#243
b1011 +
b111 0
07
b0 4
b0 I
b0 L
b0 P
b0 S
b0 V
b1011000111 %
b1011000111 G
b111 '
b111 H
b111 J
b111 K
1"
#244
0"
#245
b0 +
1-
b0 0
b11 )
b11 F
b0 %
b0 G
b1000 '
b1000 H
b1000 J
b1000 K
b111 ?
b1011 @
b1011 E
1"
#246
0"
#247
0-
b111 2
b111 D
b0 )
b0 F
b111 B
b111 9
b111 A
b11 >
b11 ]
1<
b0 ?
b0 @
b0 E
b1001 '
b1001 H
b1001 J
b1001 K
1"
#248
0"
#249
b0 2
b0 D
b1010 '
b1010 H
b1010 J
b1010 K
17
b111 4
b111 I
b111 L
b111 P
b111 S
b111 V
b0 B
b0 9
b0 A
b0 >
b0 ]
0<
1"
#250
0"
#251
b1011 +
b111 0
07
b0 4
b0 I
b0 L
b0 P
b0 S
b0 V
b1011000111 %
b1011000111 G
b111 '
b111 H
b111 J
b111 K
1"
#252
0"
#253
b0 +
1-
b0 0
b11 )
b11 F
b0 %
b0 G
b1000 '
b1000 H
b1000 J
b1000 K
b111 ?
b1011 @
b1011 E
1"
#254
0"
