集積回路工学/6bitCPU/Q5/cpu.vcd
$date
	Fri Jul 16 23:37:59 2021
$end
$version
	Icarus Verilog
$end
$timescale
	1s
$end
$scope module testbench $end
$var wire 6 ! Oout [5:0] $end
$var reg 1 " CK $end
$var reg 6 # in [5:0] $end
$scope module ToyCPU_6bit $end
$var wire 1 " CK $end
$var wire 6 $ in [5:0] $end
$var wire 10 % op_im [9:0] $end
$var wire 1 & cFlag $end
$var wire 6 ' address [5:0] $end
$var wire 6 ( Y [5:0] $end
$var wire 2 ) S [1:0] $end
$var wire 6 * Oout [5:0] $end
$var wire 4 + OP [3:0] $end
$var wire 1 , LD_out $end
$var wire 1 - LD_PC $end
$var wire 1 . LD_B $end
$var wire 1 / LD_A $end
$var wire 6 0 IM [5:0] $end
$var wire 6 1 Bout [5:0] $end
$var wire 6 2 BUS [5:0] $end
$var wire 6 3 Aout [5:0] $end
$var reg 6 4 EX_BUSreg [5:0] $end
$var reg 1 5 EX_LDAreg $end
$var reg 1 6 EX_LDBreg $end
$var reg 1 7 EX_LDPCreg $end
$var reg 1 8 EX_LDoutreg $end
$var reg 6 9 ID_IMreg [5:0] $end
$var reg 1 : ID_LDAreg $end
$var reg 1 ; ID_LDBreg $end
$var reg 1 < ID_LDPCreg $end
$var reg 1 = ID_LDoutreg $end
$var reg 2 > ID_Sreg [1:0] $end
$var reg 6 ? IF_IMreg [5:0] $end
$var reg 4 @ IF_OPreg [3:0] $end
$scope module alu $end
$var wire 6 A IM [5:0] $end
$var wire 1 & cFlag $end
$var wire 7 B add [6:0] $end
$var wire 6 C Y [5:0] $end
$var wire 6 D BUS [5:0] $end
$upscope $end
$scope module decoder $end
$var wire 1 & Dcf $end
$var wire 4 E OP [3:0] $end
$var wire 2 F S [1:0] $end
$var wire 1 , LD_out $end
$var wire 1 - LD_PC $end
$var wire 1 . LD_B $end
$var wire 1 / LD_A $end
$upscope $end
$scope module memory $end
$var wire 10 G Q [9:0] $end
$var wire 6 H AD [5:0] $end
$upscope $end
$scope module programCounter $end
$var wire 6 I AD [5:0] $end
$var wire 1 " CK $end
$var wire 1 7 LD_PC $end
$var wire 6 J OUT [5:0] $end
$var reg 6 K q [5:0] $end
$upscope $end
$scope module registers $end
$var wire 6 L BUS [5:0] $end
$var wire 1 " CK $end
$var wire 1 5 LD_A $end
$var wire 1 6 LD_B $end
$var wire 1 8 LD_out $end
$var wire 6 M O_out [5:0] $end
$var wire 6 N B_out [5:0] $end
$var wire 6 O A_out [5:0] $end
$scope module A_register $end
$var wire 6 P BUS [5:0] $end
$var wire 1 " CK $end
$var wire 1 5 LD $end
$var wire 6 Q OUT [5:0] $end
$var reg 6 R q [5:0] $end
$upscope $end
$scope module B_register $end
$var wire 6 S BUS [5:0] $end
$var wire 1 " CK $end
$var wire 1 6 LD $end
$var wire 6 T OUT [5:0] $end
$var reg 6 U q [5:0] $end
$upscope $end
$scope module output_register $end
$var wire 6 V BUS [5:0] $end
$var wire 1 " CK $end
$var wire 1 8 LD $end
$var wire 6 W OUT [5:0] $end
$var reg 6 X q [5:0] $end
$upscope $end
$upscope $end
$scope module selector $end
$var wire 6 Y C0 [5:0] $end
$var wire 6 Z C1 [5:0] $end
$var wire 6 [ C2 [5:0] $end
$var wire 6 \ C3 [5:0] $end
$var wire 2 ] S [1:0] $end
$var wire 6 ^ Y [5:0] $end
$upscope $end
$upscope $end
$upscope $end
$enddefinitions $end
#0
$dumpvars
b0 ^
b0 ]
b0 \
b0 [
b0 Z
b0 Y
b0 X
b0 W
b0 V
b0 U
b0 T
b0 S
b0 R
b0 Q
b0 P
b0 O
b0 N
b0 M
b0 L
b0 K
b0 J
b0 I
b0 H
b111111111 G
b0 F
b0 E
b0 D
b0 C
b0 B
b0 A
b0 @
b0 ?
b0 >
0=
0<
0;
0:
b0 9
08
07
06
05
b0 4
b0 3
b0 2
b0 1
b111111 0
0/
0.
0-
0,
b111 +
b0 *
b0 )
b0 (
b0 '
0&
b111111111 %
b0 $
b0 #
0"
b0 !
$end
#1
b1100 +
1.
b0 0
b10 )
b10 F
b1100000000 %
b1100000000 G
b1 '
b1 H
b1 J
b1 K
b111111 ?
b111 @
b111 E
1"
#2
0"
#3
0.
1-
b0 +
b111111 2
b111111 D
b11 )
b11 F
b111111 B
b111111 9
b111111 A
b10 >
b10 ]
1;
b0 ?
b1100 @
b1100 E
b0 %
b0 G
b10 '
b10 H
b10 J
b10 K
1"
#4
0"
#5
0-
b0 2
b0 D
b0 )
b0 F
b11 '
b11 H
b11 J
b11 K
16
b111111 4
b111111 I
b111111 L
b111111 P
b111111 S
b111111 V
b0 B
b0 9
b0 A
b11 >
b11 ]
1<
0;
b0 @
b0 E
1"
#6
0"
#7
17
06
b0 4
b0 I
b0 L
b0 P
b0 S
b0 V
b0 >
b0 ]
0<
b100 '
b100 H
b100 J
b100 K
b111111 1
b111111 N
b111111 T
b111111 U
b111111 Z
1"
#8
0"
#9
b111 +
b111111 0
b111111111 %
b111111111 G
b0 '
b0 H
b0 J
b0 K
07
1"
#10
0"
#11
1.
b1100 +
b10 )
b10 F
b0 0
b111111 ?
b111 @
b111 E
b1100000000 %
b1100000000 G
b1 '
b1 H
b1 J
b1 K
1"
#12
0"
#13
b0 +
0.
1-
b111111 2
b111111 D
b11 )
b11 F
b0 %
b0 G
b10 '
b10 H
b10 J
b10 K
b111111 B
b111111 9
b111111 A
b10 >
b10 ]
1;
b0 ?
b1100 @
b1100 E
1"
#14
0"
#15
0-
b0 2
b0 D
b0 )
b0 F
16
b111111 4
b111111 I
b111111 L
b111111 P
b111111 S
b111111 V
b0 B
b0 9
b0 A
b11 >
b11 ]
1<
0;
b0 @
b0 E
b11 '
b11 H
b11 J
b11 K
1"
#16
0"
b10 #
b10 $
b10 [
#17
b100 '
b100 H
b100 J
b100 K
17
06
b0 4
b0 I
b0 L
b0 P
b0 S
b0 V
b0 >
b0 ]
0<
1"
#18
0"
#19
b111 +
b111111 0
07
b111111111 %
b111111111 G
b0 '
b0 H
b0 J
b0 K
1"
#20
0"
#21
b1100 +
1.
b0 0
b10 )
b10 F
b1100000000 %
b1100000000 G
b1 '
b1 H
b1 J
b1 K
b111111 ?
b111 @
b111 E
1"
#22
0"
#23
1&
b10 (
b10 C
b10 ^
0.
0-
b0 +
b1 2
b1 D
b0 )
b0 F
b1000001 B
b111111 9
b111111 A
b10 >
b10 ]
1;
b0 ?
b1100 @
b1100 E
b0 %
b0 G
b10 '
b10 H
b10 J
b10 K
1"
#24
0"
#25
b0 2
b0 D
0&
b0 (
b0 C
b0 ^
b11 '
b11 H
b11 J
b11 K
16
b1 4
b1 I
b1 L
b1 P
b1 S
b1 V
b0 B
b0 9
b0 A
b0 >
b0 ]
0;
b0 @
b0 E
1"
#26
0"
#27
06
b0 4
b0 I
b0 L
b0 P
b0 S
b0 V
b100 '
b100 H
b100 J
b100 K
b1 1
b1 N
b1 T
b1 U
b1 Z
1"
#28
0"
#29
b110 +
b1 0
b110000001 %
b110000001 G
b101 '
b101 H
b101 J
b101 K
1"
#30
0"
#31
1.
b1 +
b1 )
b1 F
b1 ?
b110 @
b110 E
b1000001 %
b1000001 G
b110 '
b110 H
b110 J
b110 K
1"
#32
0"
b0 #
b0 $
b0 [
#33
b110 +
1/
0.
b10 2
b10 D
b1 (
b1 C
b1 ^
b0 )
b0 F
b110000001 %
b110000001 G
b111 '
b111 H
b111 J
b111 K
b10 B
b1 9
b1 A
b1 >
b1 ]
1;
b1 @
b1 E
1"
#34
0"
#35
b1 2
b1 D
0/
1.
b1100 +
b1 B
b0 (
b0 C
b0 ^
b1 )
b1 F
b110 0
16
b10 4
b10 I
b10 L
b10 P
b10 S
b10 V
b0 >
b0 ]
0;
1:
b110 @
b110 E
b1100000110 %
b1100000110 G
b1000 '
b1000 H
b1000 J
b1000 K
1"
#36
0"
#37
b0 +
b11 2
b11 D
0.
1-
b0 0
b11 B
b10 (
b10 C
b10 ^
b11 )
b11 F
b10 1
b10 N
b10 T
b10 U
b10 Z
b0 %
b0 G
b1001 '
b1001 H
b1001 J
b1001 K
06
15
b1 4
b1 I
b1 L
b1 P
b1 S
b1 V
b1 >
b1 ]
1;
0:
b110 ?
b1100 @
b1100 E
1"
#38
0"
#39
b0 (
b0 C
b0 ^
0-
b110 2
b110 D
b0 )
b0 F
16
05
b11 4
b11 I
b11 L
b11 P
b11 S
b11 V
b110 B
b110 9
b110 A
b11 >
b11 ]
1<
0;
b0 ?
b0 @
b0 E
b1010 '
b1010 H
b1010 J
b1010 K
b1 3
b1 O
b1 Q
b1 R
b1 Y
1"
#40
0"
#41
b1 2
b1 D
b1 (
b1 C
b1 ^
b11 1
b11 N
b11 T
b11 U
b11 Z
b1011 '
b1011 H
b1011 J
b1011 K
17
06
b110 4
b110 I
b110 L
b110 P
b110 S
b110 V
b1 B
b0 9
b0 A
b0 >
b0 ]
0<
1"
#42
0"
#43
b1 +
b1 0
07
b1 4
b1 I
b1 L
b1 P
b1 S
b1 V
b1000001 %
b1000001 G
b110 '
b110 H
b110 J
b110 K
1"
#44
0"
#45
b110 +
1/
b110000001 %
b110000001 G
b111 '
b111 H
b111 J
b111 K
b1 ?
b1 @
b1 E
1"
#46
0"
#47
0/
1.
b1100 +
b10 2
b10 D
b1 )
b1 F
b110 0
b10 B
b1 9
b1 A
1:
b110 @
b110 E
b1100000110 %
b1100000110 G
b1000 '
b1000 H
b1000 J
b1000 K
1"
#48
0"
#49
b0 +
b100 2
b100 D
0.
1-
b0 0
b100 B
b11 (
b11 C
b11 ^
b11 )
b11 F
b0 %
b0 G
b1001 '
b1001 H
b1001 J
b1001 K
15
b10 4
b10 I
b10 L
b10 P
b10 S
b10 V
b1 >
b1 ]
1;
0:
b110 ?
b1100 @
b1100 E
1"
#50
0"
#51
b0 (
b0 C
b0 ^
0-
b110 2
b110 D
b0 )
b0 F
16
05
b100 4
b100 I
b100 L
b100 P
b100 S
b100 V
b110 B
b110 9
b110 A
b11 >
b11 ]
1<
0;
b0 ?
b0 @
b0 E
b1010 '
b1010 H
b1010 J
b1010 K
b10 3
b10 O
b10 Q
b10 R
b10 Y
1"
#52
0"
#53
b10 2
b10 D
b10 (
b10 C
b10 ^
b100 1
b100 N
b100 T
b100 U
b100 Z
b1011 '
b1011 H
b1011 J
b1011 K
17
06
b110 4
b110 I
b110 L
b110 P
b110 S
b110 V
b10 B
b0 9
b0 A
b0 >
b0 ]
0<
1"
#54
0"
#55
b1 +
b1 0
07
b10 4
b10 I
b10 L
b10 P
b10 S
b10 V
b1000001 %
b1000001 G
b110 '
b110 H
b110 J
b110 K
1"
#56
0"
#57
b110 +
1/
b110000001 %
b110000001 G
b111 '
b111 H
b111 J
b111 K
b1 ?
b1 @
b1 E
1"
#58
0"
#59
0/
1.
b1100 +
b11 2
b11 D
b1 )
b1 F
b110 0
b11 B
b1 9
b1 A
1:
b110 @
b110 E
b1100000110 %
b1100000110 G
b1000 '
b1000 H
b1000 J
b1000 K
1"
#60
0"
#61
b0 +
b101 2
b101 D
0.
1-
b0 0
b101 B
b100 (
b100 C
b100 ^
b11 )
b11 F
b0 %
b0 G
b1001 '
b1001 H
b1001 J
b1001 K
15
b11 4
b11 I
b11 L
b11 P
b11 S
b11 V
b1 >
b1 ]
1;
0:
b110 ?
b1100 @
b1100 E
1"
#62
0"
#63
b0 (
b0 C
b0 ^
0-
b110 2
b110 D
b0 )
b0 F
16
05
b101 4
b101 I
b101 L
b101 P
b101 S
b101 V
b110 B
b110 9
b110 A
b11 >
b11 ]
1<
0;
b0 ?
b0 @
b0 E
b1010 '
b1010 H
b1010 J
b1010 K
b11 3
b11 O
b11 Q
b11 R
b11 Y
1"
#64
0"
#65
b11 2
b11 D
b11 (
b11 C
b11 ^
b101 1
b101 N
b101 T
b101 U
b101 Z
b1011 '
b1011 H
b1011 J
b1011 K
17
06
b110 4
b110 I
b110 L
b110 P
b110 S
b110 V
b11 B
b0 9
b0 A
b0 >
b0 ]
0<
1"
#66
0"
#67
b1 +
b1 0
07
b11 4
b11 I
b11 L
b11 P
b11 S
b11 V
b1000001 %
b1000001 G
b110 '
b110 H
b110 J
b110 K
1"
#68
0"
#69
b110 +
1/
b110000001 %
b110000001 G
b111 '
b111 H
b111 J
b111 K
b1 ?
b1 @
b1 E
1"
#70
0"
#71
0/
1.
b1100 +
b100 2
b100 D
b1 )
b1 F
b110 0
b100 B
b1 9
b1 A
1:
b110 @
b110 E
b1100000110 %
b1100000110 G
b1000 '
b1000 H
b1000 J
b1000 K
1"
#72
0"
#73
b0 +
b110 2
b110 D
0.
1-
b0 0
b110 B
b101 (
b101 C
b101 ^
b11 )
b11 F
b0 %
b0 G
b1001 '
b1001 H
b1001 J
b1001 K
15
b100 4
b100 I
b100 L
b100 P
b100 S
b100 V
b1 >
b1 ]
1;
0:
b110 ?
b1100 @
b1100 E
1"
#74
0"
#75
b0 (
b0 C
b0 ^
0-
b110 2
b110 D
b0 )
b0 F
16
05
b110 4
b110 I
b110 L
b110 P
b110 S
b110 V
b110 B
b110 9
b110 A
b11 >
b11 ]
1<
0;
b0 ?
b0 @
b0 E
b1010 '
b1010 H
b1010 J
b1010 K
b100 3
b100 O
b100 Q
b100 R
b100 Y
1"
#76
0"
#77
b100 2
b100 D
b100 (
b100 C
b100 ^
b110 1
b110 N
b110 T
b110 U
b110 Z
b1011 '
b1011 H
b1011 J
b1011 K
17
06
b100 B
b0 9
b0 A
b0 >
b0 ]
0<
1"
#78
0"
#79
b1 +
b1 0
07
b100 4
b100 I
b100 L
b100 P
b100 S
b100 V
b1000001 %
b1000001 G
b110 '
b110 H
b110 J
b110 K
1"
#80
0"
#81
b110 +
1/
b110000001 %
b110000001 G
b111 '
b111 H
b111 J
b111 K
b1 ?
b1 @
b1 E
1"
#82
0"
#83
0/
1.
b1100 +
b101 2
b101 D
b1 )
b1 F
b110 0
b101 B
b1 9
b1 A
1:
b110 @
b110 E
b1100000110 %
b1100000110 G
b1000 '
b1000 H
b1000 J
b1000 K
1"
#84
0"
#85
b0 +
b111 2
b111 D
0.
1-
b0 0
b111 B
b110 (
b110 C
b110 ^
b11 )
b11 F
b0 %
b0 G
b1001 '
b1001 H
b1001 J
b1001 K
15
b101 4
b101 I
b101 L
b101 P
b101 S
b101 V
b1 >
b1 ]
1;
0:
b110 ?
b1100 @
b1100 E
1"
#86
0"
#87
b0 (
b0 C
b0 ^
0-
b110 2
b110 D
b0 )
b0 F
16
05
b111 4
b111 I
b111 L
b111 P
b111 S
b111 V
b110 B
b110 9
b110 A
b11 >
b11 ]
1<
0;
b0 ?
b0 @
b0 E
b1010 '
b1010 H
b1010 J
b1010 K
b101 3
b101 O
b101 Q
b101 R
b101 Y
1"
#88
0"
#89
b101 2
b101 D
b101 (
b101 C
b101 ^
b111 1
b111 N
b111 T
b111 U
b111 Z
b1011 '
b1011 H
b1011 J
b1011 K
17
06
b110 4
b110 I
b110 L
b110 P
b110 S
b110 V
b101 B
b0 9
b0 A
b0 >
b0 ]
0<
1"
#90
0"
#91
b1 +
b1 0
07
b101 4
b101 I
b101 L
b101 P
b101 S
b101 V
b1000001 %
b1000001 G
b110 '
b110 H
b110 J
b110 K
1"
#92
0"
#93
b110 +
1/
b110000001 %
b110000001 G
b111 '
b111 H
b111 J
b111 K
b1 ?
b1 @
b1 E
1"
#94
0"
#95
0/
1.
b1100 +
b110 2
b110 D
b1 )
b1 F
b110 0
b110 B
b1 9
b1 A
1:
b110 @
b110 E
b1100000110 %
b1100000110 G
b1000 '
b1000 H
b1000 J
b1000 K
1"
#96
0"
#97
b0 +
b1000 2
b1000 D
0.
1-
b0 0
b1000 B
b111 (
b111 C
b111 ^
b11 )
b11 F
b0 %
b0 G
b1001 '
b1001 H
b1001 J
b1001 K
15
b110 4
b110 I
b110 L
b110 P
b110 S
b110 V
b1 >
b1 ]
1;
0:
b110 ?
b1100 @
b1100 E
1"
#98
0"
#99
b0 (
b0 C
b0 ^
0-
b110 2
b110 D
b0 )
b0 F
16
05
b1000 4
b1000 I
b1000 L
b1000 P
b1000 S
b1000 V
b110 B
b110 9
b110 A
b11 >
b11 ]
1<
0;
b0 ?
b0 @
b0 E
b1010 '
b1010 H
b1010 J
b1010 K
b110 3
b110 O
b110 Q
b110 R
b110 Y
1"
#100
0"
#101
b110 (
b110 C
b110 ^
b1000 1
b1000 N
b1000 T
b1000 U
b1000 Z
b1011 '
b1011 H
b1011 J
b1011 K
17
06
b110 4
b110 I
b110 L
b110 P
b110 S
b110 V
b110 B
b0 9
b0 A
b0 >
b0 ]
0<
1"
#102
0"
#103
b1 +
b1 0
07
b1000001 %
b1000001 G
b110 '
b110 H
b110 J
b110 K
1"
#104
0"
#105
b110 +
1/
b110000001 %
b110000001 G
b111 '
b111 H
b111 J
b111 K
b1 ?
b1 @
b1 E
1"
#106
0"
#107
0/
1.
b1100 +
b111 2
b111 D
b1 )
b1 F
b110 0
b111 B
b1 9
b1 A
1:
b110 @
b110 E
b1100000110 %
b1100000110 G
b1000 '
b1000 H
b1000 J
b1000 K
1"
#108
0"
#109
b0 +
b1001 2
b1001 D
0.
1-
b0 0
b1001 B
b1000 (
b1000 C
b1000 ^
b11 )
b11 F
b0 %
b0 G
b1001 '
b1001 H
b1001 J
b1001 K
15
b111 4
b111 I
b111 L
b111 P
b111 S
b111 V
b1 >
b1 ]
1;
0:
b110 ?
b1100 @
b1100 E
1"
#110
0"
#111
b0 (
b0 C
b0 ^
0-
b110 2
b110 D
b0 )
b0 F
16
05
b1001 4
b1001 I
b1001 L
b1001 P
b1001 S
b1001 V
b110 B
b110 9
b110 A
b11 >
b11 ]
1<
0;
b0 ?
b0 @
b0 E
b1010 '
b1010 H
b1010 J
b1010 K
b111 3
b111 O
b111 Q
b111 R
b111 Y
1"
#112
0"
#113
b111 2
b111 D
b111 (
b111 C
b111 ^
b1001 1
b1001 N
b1001 T
b1001 U
b1001 Z
b1011 '
b1011 H
b1011 J
b1011 K
17
06
b110 4
b110 I
b110 L
b110 P
b110 S
b110 V
b111 B
b0 9
b0 A
b0 >
b0 ]
0<
1"
#114
0"
#115
b1 +
b1 0
07
b111 4
b111 I
b111 L
b111 P
b111 S
b111 V
b1000001 %
b1000001 G
b110 '
b110 H
b110 J
b110 K
1"
#116
0"
#117
b110 +
1/
b110000001 %
b110000001 G
b111 '
b111 H
b111 J
b111 K
b1 ?
b1 @
b1 E
1"
#118
0"
#119
0/
1.
b1100 +
b1000 2
b1000 D
b1 )
b1 F
b110 0
b1000 B
b1 9
b1 A
1:
b110 @
b110 E
b1100000110 %
b1100000110 G
b1000 '
b1000 H
b1000 J
b1000 K
1"
#120
0"
#121
b0 +
b1010 2
b1010 D
0.
1-
b0 0
b1010 B
b1001 (
b1001 C
b1001 ^
b11 )
b11 F
b0 %
b0 G
b1001 '
b1001 H
b1001 J
b1001 K
15
b1000 4
b1000 I
b1000 L
b1000 P
b1000 S
b1000 V
b1 >
b1 ]
1;
0:
b110 ?
b1100 @
b1100 E
1"
#122
0"
#123
b0 (
b0 C
b0 ^
0-
b110 2
b110 D
b0 )
b0 F
16
05
b1010 4
b1010 I
b1010 L
b1010 P
b1010 S
b1010 V
b110 B
b110 9
b110 A
b11 >
b11 ]
1<
0;
b0 ?
b0 @
b0 E
b1010 '
b1010 H
b1010 J
b1010 K
b1000 3
b1000 O
b1000 Q
b1000 R
b1000 Y
1"
#124
0"
#125
b1000 2
b1000 D
b1000 (
b1000 C
b1000 ^
b1010 1
b1010 N
b1010 T
b1010 U
b1010 Z
b1011 '
b1011 H
b1011 J
b1011 K
17
06
b110 4
b110 I
b110 L
b110 P
b110 S
b110 V
b1000 B
b0 9
b0 A
b0 >
b0 ]
0<
1"
#126
0"
#127
b1 +
b1 0
07
b1000 4
b1000 I
b1000 L
b1000 P
b1000 S
b1000 V
b1000001 %
b1000001 G
b110 '
b110 H
b110 J
b110 K
1"
#128
0"
#129
b110 +
1/
b110000001 %
b110000001 G
b111 '
b111 H
b111 J
b111 K
b1 ?
b1 @
b1 E
1"
#130
0"
#131
0/
1.
b1100 +
b1001 2
b1001 D
b1 )
b1 F
b110 0
b1001 B
b1 9
b1 A
1:
b110 @
b110 E
b1100000110 %
b1100000110 G
b1000 '
b1000 H
b1000 J
b1000 K
1"
#132
0"
#133
b0 +
b1011 2
b1011 D
0.
1-
b0 0
b1011 B
b1010 (
b1010 C
b1010 ^
b11 )
b11 F
b0 %
b0 G
b1001 '
b1001 H
b1001 J
b1001 K
15
b1001 4
b1001 I
b1001 L
b1001 P
b1001 S
b1001 V
b1 >
b1 ]
1;
0:
b110 ?
b1100 @
b1100 E
1"
#134
0"
#135
b0 (
b0 C
b0 ^
0-
b110 2
b110 D
b0 )
b0 F
16
05
b1011 4
b1011 I
b1011 L
b1011 P
b1011 S
b1011 V
b110 B
b110 9
b110 A
b11 >
b11 ]
1<
0;
b0 ?
b0 @
b0 E
b1010 '
b1010 H
b1010 J
b1010 K
b1001 3
b1001 O
b1001 Q
b1001 R
b1001 Y
1"
#136
0"
#137
b1001 2
b1001 D
b1001 (
b1001 C
b1001 ^
b1011 1
b1011 N
b1011 T
b1011 U
b1011 Z
b1011 '
b1011 H
b1011 J
b1011 K
17
06
b110 4
b110 I
b110 L
b110 P
b110 S
b110 V
b1001 B
b0 9
b0 A
b0 >
b0 ]
0<
1"
#138
0"
#139
b1 +
b1 0
07
b1001 4
b1001 I
b1001 L
b1001 P
b1001 S
b1001 V
b1000001 %
b1000001 G
b110 '
b110 H
b110 J
b110 K
1"
#140
0"
#141
b110 +
1/
b110000001 %
b110000001 G
b111 '
b111 H
b111 J
b111 K
b1 ?
b1 @
b1 E
1"
#142
0"
#143
0/
1.
b1100 +
b1010 2
b1010 D
b1 )
b1 F
b110 0
b1010 B
b1 9
b1 A
1:
b110 @
b110 E
b1100000110 %
b1100000110 G
b1000 '
b1000 H
b1000 J
b1000 K
1"
#144
0"
#145
b0 +
b1100 2
b1100 D
0.
1-
b0 0
b1100 B
b1011 (
b1011 C
b1011 ^
b11 )
b11 F
b0 %
b0 G
b1001 '
b1001 H
b1001 J
b1001 K
15
b1010 4
b1010 I
b1010 L
b1010 P
b1010 S
b1010 V
b1 >
b1 ]
1;
0:
b110 ?
b1100 @
b1100 E
1"
#146
0"
#147
b0 (
b0 C
b0 ^
0-
b110 2
b110 D
b0 )
b0 F
16
05
b1100 4
b1100 I
b1100 L
b1100 P
b1100 S
b1100 V
b110 B
b110 9
b110 A
b11 >
b11 ]
1<
0;
b0 ?
b0 @
b0 E
b1010 '
b1010 H
b1010 J
b1010 K
b1010 3
b1010 O
b1010 Q
b1010 R
b1010 Y
1"
#148
0"
#149
b1010 2
b1010 D
b1010 (
b1010 C
b1010 ^
b1100 1
b1100 N
b1100 T
b1100 U
b1100 Z
b1011 '
b1011 H
b1011 J
b1011 K
17
06
b110 4
b110 I
b110 L
b110 P
b110 S
b110 V
b1010 B
b0 9
b0 A
b0 >
b0 ]
0<
1"
#150
0"
#151
b1 +
b1 0
07
b1010 4
b1010 I
b1010 L
b1010 P
b1010 S
b1010 V
b1000001 %
b1000001 G
b110 '
b110 H
b110 J
b110 K
1"
#152
0"
#153
b110 +
1/
b110000001 %
b110000001 G
b111 '
b111 H
b111 J
b111 K
b1 ?
b1 @
b1 E
1"
#154
0"
#155
0/
1.
b1100 +
b1011 2
b1011 D
b1 )
b1 F
b110 0
b1011 B
b1 9
b1 A
1:
b110 @
b110 E
b1100000110 %
b1100000110 G
b1000 '
b1000 H
b1000 J
b1000 K
1"
#156
0"
#157
b0 +
b1101 2
b1101 D
0.
1-
b0 0
b1101 B
b1100 (
b1100 C
b1100 ^
b11 )
b11 F
b0 %
b0 G
b1001 '
b1001 H
b1001 J
b1001 K
15
b1011 4
b1011 I
b1011 L
b1011 P
b1011 S
b1011 V
b1 >
b1 ]
1;
0:
b110 ?
b1100 @
b1100 E
1"
#158
0"
#159
b0 (
b0 C
b0 ^
0-
b110 2
b110 D
b0 )
b0 F
16
05
b1101 4
b1101 I
b1101 L
b1101 P
b1101 S
b1101 V
b110 B
b110 9
b110 A
b11 >
b11 ]
1<
0;
b0 ?
b0 @
b0 E
b1010 '
b1010 H
b1010 J
b1010 K
b1011 3
b1011 O
b1011 Q
b1011 R
b1011 Y
1"
#160
0"
#161
b1011 2
b1011 D
b1011 (
b1011 C
b1011 ^
b1101 1
b1101 N
b1101 T
b1101 U
b1101 Z
b1011 '
b1011 H
b1011 J
b1011 K
17
06
b110 4
b110 I
b110 L
b110 P
b110 S
b110 V
b1011 B
b0 9
b0 A
b0 >
b0 ]
0<
1"
#162
0"
#163
b1 +
b1 0
07
b1011 4
b1011 I
b1011 L
b1011 P
b1011 S
b1011 V
b1000001 %
b1000001 G
b110 '
b110 H
b110 J
b110 K
1"
#164
0"
#165
b110 +
1/
b110000001 %
b110000001 G
b111 '
b111 H
b111 J
b111 K
b1 ?
b1 @
b1 E
1"
#166
0"
#167
0/
1.
b1100 +
b1100 2
b1100 D
b1 )
b1 F
b110 0
b1100 B
b1 9
b1 A
1:
b110 @
b110 E
b1100000110 %
b1100000110 G
b1000 '
b1000 H
b1000 J
b1000 K
1"
#168
0"
#169
b0 +
b1110 2
b1110 D
0.
1-
b0 0
b1110 B
b1101 (
b1101 C
b1101 ^
b11 )
b11 F
b0 %
b0 G
b1001 '
b1001 H
b1001 J
b1001 K
15
b1100 4
b1100 I
b1100 L
b1100 P
b1100 S
b1100 V
b1 >
b1 ]
1;
0:
b110 ?
b1100 @
b1100 E
1"
#170
0"
#171
b0 (
b0 C
b0 ^
0-
b110 2
b110 D
b0 )
b0 F
16
05
b1110 4
b1110 I
b1110 L
b1110 P
b1110 S
b1110 V
b110 B
b110 9
b110 A
b11 >
b11 ]
1<
0;
b0 ?
b0 @
b0 E
b1010 '
b1010 H
b1010 J
b1010 K
b1100 3
b1100 O
b1100 Q
b1100 R
b1100 Y
1"
#172
0"
#173
b1100 2
b1100 D
b1100 (
b1100 C
b1100 ^
b1110 1
b1110 N
b1110 T
b1110 U
b1110 Z
b1011 '
b1011 H
b1011 J
b1011 K
17
06
b110 4
b110 I
b110 L
b110 P
b110 S
b110 V
b1100 B
b0 9
b0 A
b0 >
b0 ]
0<
1"
#174
0"
#175
b1 +
b1 0
07
b1100 4
b1100 I
b1100 L
b1100 P
b1100 S
b1100 V
b1000001 %
b1000001 G
b110 '
b110 H
b110 J
b110 K
1"
#176
0"
#177
b110 +
1/
b110000001 %
b110000001 G
b111 '
b111 H
b111 J
b111 K
b1 ?
b1 @
b1 E
1"
#178
0"
#179
0/
1.
b1100 +
b1101 2
b1101 D
b1 )
b1 F
b110 0
b1101 B
b1 9
b1 A
1:
b110 @
b110 E
b1100000110 %
b1100000110 G
b1000 '
b1000 H
b1000 J
b1000 K
1"
#180
0"
#181
b0 +
b1111 2
b1111 D
0.
1-
b0 0
b1111 B
b1110 (
b1110 C
b1110 ^
b11 )
b11 F
b0 %
b0 G
b1001 '
b1001 H
b1001 J
b1001 K
15
b1101 4
b1101 I
b1101 L
b1101 P
b1101 S
b1101 V
b1 >
b1 ]
1;
0:
b110 ?
b1100 @
b1100 E
1"
#182
0"
#183
b0 (
b0 C
b0 ^
0-
b110 2
b110 D
b0 )
b0 F
16
05
b1111 4
b1111 I
b1111 L
b1111 P
b1111 S
b1111 V
b110 B
b110 9
b110 A
b11 >
b11 ]
1<
0;
b0 ?
b0 @
b0 E
b1010 '
b1010 H
b1010 J
b1010 K
b1101 3
b1101 O
b1101 Q
b1101 R
b1101 Y
1"
#184
0"
#185
b1101 2
b1101 D
b1101 (
b1101 C
b1101 ^
b1111 1
b1111 N
b1111 T
b1111 U
b1111 Z
b1011 '
b1011 H
b1011 J
b1011 K
17
06
b110 4
b110 I
b110 L
b110 P
b110 S
b110 V
b1101 B
b0 9
b0 A
b0 >
b0 ]
0<
1"
#186
0"
#187
b1 +
b1 0
07
b1101 4
b1101 I
b1101 L
b1101 P
b1101 S
b1101 V
b1000001 %
b1000001 G
b110 '
b110 H
b110 J
b110 K
1"
#188
0"
#189
b110 +
1/
b110000001 %
b110000001 G
b111 '
b111 H
b111 J
b111 K
b1 ?
b1 @
b1 E
1"
#190
0"
#191
0/
1.
b1100 +
b1110 2
b1110 D
b1 )
b1 F
b110 0
b1110 B
b1 9
b1 A
1:
b110 @
b110 E
b1100000110 %
b1100000110 G
b1000 '
b1000 H
b1000 J
b1000 K
1"
#192
0"
#193
b0 +
b10000 2
b10000 D
0.
1-
b0 0
b10000 B
b1111 (
b1111 C
b1111 ^
b11 )
b11 F
b0 %
b0 G
b1001 '
b1001 H
b1001 J
b1001 K
15
b1110 4
b1110 I
b1110 L
b1110 P
b1110 S
b1110 V
b1 >
b1 ]
1;
0:
b110 ?
b1100 @
b1100 E
1"
#194
0"
#195
b0 (
b0 C
b0 ^
0-
b110 2
b110 D
b0 )
b0 F
16
05
b10000 4
b10000 I
b10000 L
b10000 P
b10000 S
b10000 V
b110 B
b110 9
b110 A
b11 >
b11 ]
1<
0;
b0 ?
b0 @
b0 E
b1010 '
b1010 H
b1010 J
b1010 K
b1110 3
b1110 O
b1110 Q
b1110 R
b1110 Y
1"
#196
0"
#197
b1110 2
b1110 D
b1110 (
b1110 C
b1110 ^
b10000 1
b10000 N
b10000 T
b10000 U
b10000 Z
b1011 '
b1011 H
b1011 J
b1011 K
17
06
b110 4
b110 I
b110 L
b110 P
b110 S
b110 V
b1110 B
b0 9
b0 A
b0 >
b0 ]
0<
1"
#198
0"
#199
b1 +
b1 0
07
b1110 4
b1110 I
b1110 L
b1110 P
b1110 S
b1110 V
b1000001 %
b1000001 G
b110 '
b110 H
b110 J
b110 K
1"
#200
0"
