集積回路工学/6bitCPU/Q4/cpu.vcd
$date
	Fri Jul 16 23:29:30 2021
$end
$version
	Icarus Verilog
$end
$timescale
	1s
$end
$scope module testbench $end
$var wire 6 ! Oout [5:0] $end
$var reg 1 " CK $end
$var reg 6 # in [5:0] $end
$scope module ToyCPU_6bit $end
$var wire 1 " CK $end
$var wire 6 $ in [5:0] $end
$var wire 10 % op_im [9:0] $end
$var wire 1 & cFlag $end
$var wire 6 ' address [5:0] $end
$var wire 6 ( Y [5:0] $end
$var wire 2 ) S [1:0] $end
$var wire 6 * Oout [5:0] $end
$var wire 4 + OP [3:0] $end
$var wire 1 , LD_out $end
$var wire 1 - LD_PC $end
$var wire 1 . LD_B $end
$var wire 1 / LD_A $end
$var wire 6 0 IM [5:0] $end
$var wire 6 1 Bout [5:0] $end
$var wire 6 2 BUS [5:0] $end
$var wire 6 3 Aout [5:0] $end
$var reg 6 4 EX_BUSreg [5:0] $end
$var reg 1 5 EX_LDAreg $end
$var reg 1 6 EX_LDBreg $end
$var reg 1 7 EX_LDPCreg $end
$var reg 1 8 EX_LDoutreg $end
$var reg 6 9 ID_IMreg [5:0] $end
$var reg 1 : ID_LDAreg $end
$var reg 1 ; ID_LDBreg $end
$var reg 1 < ID_LDPCreg $end
$var reg 1 = ID_LDoutreg $end
$var reg 2 > ID_Sreg [1:0] $end
$var reg 6 ? IF_IMreg [5:0] $end
$var reg 4 @ IF_OPreg [3:0] $end
$scope module alu $end
$var wire 6 A IM [5:0] $end
$var wire 1 & cFlag $end
$var wire 7 B add [6:0] $end
$var wire 6 C Y [5:0] $end
$var wire 6 D BUS [5:0] $end
$upscope $end
$scope module decoder $end
$var wire 1 & Dcf $end
$var wire 4 E OP [3:0] $end
$var wire 2 F S [1:0] $end
$var wire 1 , LD_out $end
$var wire 1 - LD_PC $end
$var wire 1 . LD_B $end
$var wire 1 / LD_A $end
$upscope $end
$scope module memory $end
$var wire 10 G Q [9:0] $end
$var wire 6 H AD [5:0] $end
$upscope $end
$scope module programCounter $end
$var wire 6 I AD [5:0] $end
$var wire 1 " CK $end
$var wire 1 7 LD_PC $end
$var wire 6 J OUT [5:0] $end
$var reg 6 K q [5:0] $end
$upscope $end
$scope module registers $end
$var wire 6 L BUS [5:0] $end
$var wire 1 " CK $end
$var wire 1 5 LD_A $end
$var wire 1 6 LD_B $end
$var wire 1 8 LD_out $end
$var wire 6 M O_out [5:0] $end
$var wire 6 N B_out [5:0] $end
$var wire 6 O A_out [5:0] $end
$scope module A_register $end
$var wire 6 P BUS [5:0] $end
$var wire 1 " CK $end
$var wire 1 5 LD $end
$var wire 6 Q OUT [5:0] $end
$var reg 6 R q [5:0] $end
$upscope $end
$scope module B_register $end
$var wire 6 S BUS [5:0] $end
$var wire 1 " CK $end
$var wire 1 6 LD $end
$var wire 6 T OUT [5:0] $end
$var reg 6 U q [5:0] $end
$upscope $end
$scope module output_register $end
$var wire 6 V BUS [5:0] $end
$var wire 1 " CK $end
$var wire 1 8 LD $end
$var wire 6 W OUT [5:0] $end
$var reg 6 X q [5:0] $end
$upscope $end
$upscope $end
$scope module selector $end
$var wire 6 Y C0 [5:0] $end
$var wire 6 Z C1 [5:0] $end
$var wire 6 [ C2 [5:0] $end
$var wire 6 \ C3 [5:0] $end
$var wire 2 ] S [1:0] $end
$var wire 6 ^ Y [5:0] $end
$upscope $end
$upscope $end
$upscope $end
$enddefinitions $end
#0
$dumpvars
b0 ^
b0 ]
b0 \
b101 [
b0 Z
b0 Y
b0 X
b0 W
b0 V
b0 U
b0 T
b0 S
b0 R
b0 Q
b0 P
b0 O
b0 N
b0 M
b0 L
b0 K
b0 J
b0 I
b0 H
b100111100 G
b0 F
b0 E
b0 D
b0 C
b0 B
b0 A
b0 @
b0 ?
b0 >
0=
0<
0;
0:
b0 9
08
07
06
05
b0 4
b0 3
b0 2
b0 1
b111100 0
0/
0.
0-
0,
b100 +
b0 *
b0 )
b0 (
b0 '
0&
b100111100 %
b101 $
b101 #
0"
b0 !
$end
#1
b1010 +
1/
b0 0
b11 )
b11 F
b1010000000 %
b1010000000 G
b1 '
b1 H
b1 J
b1 K
b111100 ?
b100 @
b100 E
1"
#2
0"
#3
0/
1,
b111100 2
b111100 D
b111111 0
b111100 B
b111100 9
b111100 A
b11 >
b11 ]
1:
b0 ?
b1010 @
b1010 E
b1010111111 %
b1010111111 G
b10 '
b10 H
b10 J
b10 K
1"
#4
0"
#5
b1 +
b1 0
b0 2
b0 D
b1000001 %
b1000001 G
b11 '
b11 H
b11 J
b11 K
15
b111100 4
b111100 I
b111100 L
b111100 P
b111100 S
b111100 V
b0 B
b0 9
b0 A
1=
0:
b111111 ?
1"
#6
0"
#7
1/
0,
b1100 +
b111111 2
b111111 D
b0 )
b0 F
18
05
b0 4
b0 I
b0 L
b0 P
b0 S
b0 V
b111111 B
b111111 9
b111111 A
b1 ?
b1 @
b1 E
b1100000001 %
b1100000001 G
b100 '
b100 H
b100 J
b100 K
b111100 3
b111100 O
b111100 Q
b111100 R
b111100 Y
1"
#8
0"
#9
b0 +
0/
1-
b0 0
b111101 2
b111101 D
b111100 (
b111100 C
b111100 ^
b11 )
b11 F
b0 %
b0 G
b101 '
b101 H
b101 J
b101 K
b111111 4
b111111 I
b111111 L
b111111 P
b111111 S
b111111 V
b111101 B
b1 9
b1 A
b0 >
b0 ]
0=
1:
b1100 @
b1100 E
1"
#10
0"
#11
b1 2
b1 D
0-
b1 B
b0 (
b0 C
b0 ^
b0 )
b0 F
08
15
b111101 4
b111101 I
b111101 L
b111101 P
b111101 S
b111101 V
b11 >
b11 ]
1<
0:
b0 ?
b0 @
b0 E
b110 '
b110 H
b110 J
b110 K
b111111 !
b111111 *
b111111 M
b111111 W
b111111 X
1"
#12
0"
#13
b111101 2
b111101 D
b111101 (
b111101 C
b111101 ^
b111101 3
b111101 O
b111101 Q
b111101 R
b111101 Y
b111 '
b111 H
b111 J
b111 K
17
05
b1 4
b1 I
b1 L
b1 P
b1 S
b1 V
b111101 B
b0 9
b0 A
b0 >
b0 ]
0<
1"
#14
0"
#15
b1010 +
07
b111101 4
b111101 I
b111101 L
b111101 P
b111101 S
b111101 V
b1010000000 %
b1010000000 G
b1 '
b1 H
b1 J
b1 K
1"
#16
0"
#17
1,
b111111 0
b11 )
b11 F
b1010111111 %
b1010111111 G
b10 '
b10 H
b10 J
b10 K
b1010 @
b1010 E
1"
#18
0"
#19
b0 2
b0 D
b1 +
b0 B
b0 (
b0 C
b0 ^
b1 0
b11 >
b11 ]
1=
b111111 ?
b1000001 %
b1000001 G
b11 '
b11 H
b11 J
b11 K
1"
#20
0"
#21
b1100 +
1/
0,
b111111 2
b111111 D
b0 )
b0 F
b1100000001 %
b1100000001 G
b100 '
b100 H
b100 J
b100 K
18
b0 4
b0 I
b0 L
b0 P
b0 S
b0 V
b111111 B
b111111 9
b111111 A
b1 ?
b1 @
b1 E
1"
#22
0"
#23
0/
1-
b0 +
b111110 2
b111110 D
b111101 (
b111101 C
b111101 ^
b11 )
b11 F
b0 0
b111111 4
b111111 I
b111111 L
b111111 P
b111111 S
b111111 V
b111110 B
b1 9
b1 A
b0 >
b0 ]
0=
1:
b1100 @
b1100 E
b0 %
b0 G
b101 '
b101 H
b101 J
b101 K
b0 !
b0 *
b0 M
b0 W
b0 X
1"
#24
0"
#25
b1 2
b1 D
0-
b1 B
b0 (
b0 C
b0 ^
b0 )
b0 F
b111111 !
b111111 *
b111111 M
b111111 W
b111111 X
b110 '
b110 H
b110 J
b110 K
08
15
b111110 4
b111110 I
b111110 L
b111110 P
b111110 S
b111110 V
b11 >
b11 ]
1<
0:
b0 ?
b0 @
b0 E
1"
#26
0"
#27
b111110 2
b111110 D
b111110 (
b111110 C
b111110 ^
17
05
b1 4
b1 I
b1 L
b1 P
b1 S
b1 V
b111110 B
b0 9
b0 A
b0 >
b0 ]
0<
b111 '
b111 H
b111 J
b111 K
b111110 3
b111110 O
b111110 Q
b111110 R
b111110 Y
1"
#28
0"
#29
b1010 +
b1010000000 %
b1010000000 G
b1 '
b1 H
b1 J
b1 K
07
b111110 4
b111110 I
b111110 L
b111110 P
b111110 S
b111110 V
1"
#30
0"
#31
1,
b11 )
b11 F
b111111 0
b1010 @
b1010 E
b1010111111 %
b1010111111 G
b10 '
b10 H
b10 J
b10 K
1"
#32
0"
#33
b1 +
b0 2
b0 D
b1 0
b0 B
b0 (
b0 C
b0 ^
b1000001 %
b1000001 G
b11 '
b11 H
b11 J
b11 K
b11 >
b11 ]
1=
b111111 ?
1"
#34
0"
#35
1/
0,
b1100 +
b111111 2
b111111 D
b0 )
b0 F
18
b0 4
b0 I
b0 L
b0 P
b0 S
b0 V
b111111 B
b111111 9
b111111 A
b1 ?
b1 @
b1 E
b1100000001 %
b1100000001 G
b100 '
b100 H
b100 J
b100 K
1"
#36
0"
#37
b0 +
0/
1-
b0 0
b111110 (
b111110 C
b111110 ^
b11 )
b11 F
b0 !
b0 *
b0 M
b0 W
b0 X
b0 %
b0 G
b101 '
b101 H
b101 J
b101 K
b111111 4
b111111 I
b111111 L
b111111 P
b111111 S
b111111 V
b111111 B
b1 9
b1 A
b0 >
b0 ]
0=
1:
b1100 @
b1100 E
1"
#38
0"
#39
b1 2
b1 D
0-
b1 B
b0 (
b0 C
b0 ^
b0 )
b0 F
08
15
b11 >
b11 ]
1<
0:
b0 ?
b0 @
b0 E
b110 '
b110 H
b110 J
b110 K
b111111 !
b111111 *
b111111 M
b111111 W
b111111 X
1"
#40
0"
#41
b111111 2
b111111 D
b111111 (
b111111 C
b111111 ^
b111111 3
b111111 O
b111111 Q
b111111 R
b111111 Y
b111 '
b111 H
b111 J
b111 K
17
05
b1 4
b1 I
b1 L
b1 P
b1 S
b1 V
b111111 B
b0 9
b0 A
b0 >
b0 ]
0<
1"
#42
0"
#43
b1010 +
07
b111111 4
b111111 I
b111111 L
b111111 P
b111111 S
b111111 V
b1010000000 %
b1010000000 G
b1 '
b1 H
b1 J
b1 K
1"
#44
0"
#45
1,
b111111 0
b11 )
b11 F
b1010111111 %
b1010111111 G
b10 '
b10 H
b10 J
b10 K
b1010 @
b1010 E
1"
#46
0"
#47
b0 2
b0 D
b1 +
b0 B
b0 (
b0 C
b0 ^
b1 0
b11 >
b11 ]
1=
b111111 ?
b1000001 %
b1000001 G
b11 '
b11 H
b11 J
b11 K
1"
#48
0"
#49
b1100 +
1/
0,
b111111 2
b111111 D
b0 )
b0 F
b1100000001 %
b1100000001 G
b100 '
b100 H
b100 J
b100 K
18
b0 4
b0 I
b0 L
b0 P
b0 S
b0 V
b111111 B
b111111 9
b111111 A
b1 ?
b1 @
b1 E
1"
#50
0"
#51
1&
0/
0-
b0 +
b0 2
b0 D
b111111 (
b111111 C
b111111 ^
b0 )
b0 F
b0 0
b111111 4
b111111 I
b111111 L
b111111 P
b111111 S
b111111 V
b1000000 B
b1 9
b1 A
b0 >
b0 ]
0=
1:
b1100 @
b1100 E
b0 %
b0 G
b101 '
b101 H
b101 J
b101 K
b0 !
b0 *
b0 M
b0 W
b0 X
1"
#52
0"
#53
b111111 !
b111111 *
b111111 M
b111111 W
b111111 X
b110 '
b110 H
b110 J
b110 K
08
15
b0 4
b0 I
b0 L
b0 P
b0 S
b0 V
0:
b0 ?
b0 @
b0 E
1"
#54
0"
#55
0&
b0 (
b0 C
b0 ^
05
b0 B
b0 9
b0 A
b111 '
b111 H
b111 J
b111 K
b0 3
b0 O
b0 Q
b0 R
b0 Y
1"
#56
0"
#57
b1010 +
b1 0
b1010000001 %
b1010000001 G
b1000 '
b1000 H
b1000 J
b1000 K
1"
#58
0"
#59
1,
b1011 +
b11 )
b11 F
b1001 0
b1 ?
b1010 @
b1010 E
b1011001001 %
b1011001001 G
b1001 '
b1001 H
b1001 J
b1001 K
1"
#60
0"
#61
b0 +
0,
1-
b0 0
b1 2
b1 D
b0 %
b0 G
b1010 '
b1010 H
b1010 J
b1010 K
b1 B
b1 9
b1 A
b11 >
b11 ]
1=
b1001 ?
b1011 @
b1011 E
1"
#62
0"
#63
0-
b1001 2
b1001 D
b0 )
b0 F
18
b1 4
b1 I
b1 L
b1 P
b1 S
b1 V
b1001 B
b1001 9
b1001 A
1<
0=
b0 ?
b0 @
b0 E
b1011 '
b1011 H
b1011 J
b1011 K
1"
#64
0"
#65
b0 2
b0 D
b1 !
b1 *
b1 M
b1 W
b1 X
b1100 '
b1100 H
b1100 J
b1100 K
17
08
b1001 4
b1001 I
b1001 L
b1001 P
b1001 S
b1001 V
b0 B
b0 9
b0 A
b0 >
b0 ]
0<
1"
#66
0"
#67
b1011 +
b1001 0
07
b0 4
b0 I
b0 L
b0 P
b0 S
b0 V
b1011001001 %
b1011001001 G
b1001 '
b1001 H
b1001 J
b1001 K
1"
#68
0"
#69
b0 +
1-
b0 0
b11 )
b11 F
b0 %
b0 G
b1010 '
b1010 H
b1010 J
b1010 K
b1001 ?
b1011 @
b1011 E
1"
#70
0"
#71
0-
b1001 2
b1001 D
b0 )
b0 F
b1001 B
b1001 9
b1001 A
b11 >
b11 ]
1<
b0 ?
b0 @
b0 E
b1011 '
b1011 H
b1011 J
b1011 K
1"
#72
0"
#73
b0 2
b0 D
b1100 '
b1100 H
b1100 J
b1100 K
17
b1001 4
b1001 I
b1001 L
b1001 P
b1001 S
b1001 V
b0 B
b0 9
b0 A
b0 >
b0 ]
0<
1"
#74
0"
#75
b1011 +
b1001 0
07
b0 4
b0 I
b0 L
b0 P
b0 S
b0 V
b1011001001 %
b1011001001 G
b1001 '
b1001 H
b1001 J
b1001 K
1"
#76
0"
#77
b0 +
1-
b0 0
b11 )
b11 F
b0 %
b0 G
b1010 '
b1010 H
b1010 J
b1010 K
b1001 ?
b1011 @
b1011 E
1"
#78
0"
#79
0-
b1001 2
b1001 D
b0 )
b0 F
b1001 B
b1001 9
b1001 A
b11 >
b11 ]
1<
b0 ?
b0 @
b0 E
b1011 '
b1011 H
b1011 J
b1011 K
1"
#80
0"
#81
b0 2
b0 D
b1100 '
b1100 H
b1100 J
b1100 K
17
b1001 4
b1001 I
b1001 L
b1001 P
b1001 S
b1001 V
b0 B
b0 9
b0 A
b0 >
b0 ]
0<
1"
#82
0"
#83
b1011 +
b1001 0
07
b0 4
b0 I
b0 L
b0 P
b0 S
b0 V
b1011001001 %
b1011001001 G
b1001 '
b1001 H
b1001 J
b1001 K
1"
#84
0"
#85
b0 +
1-
b0 0
b11 )
b11 F
b0 %
b0 G
b1010 '
b1010 H
b1010 J
b1010 K
b1001 ?
b1011 @
b1011 E
1"
#86
0"
#87
0-
b1001 2
b1001 D
b0 )
b0 F
b1001 B
b1001 9
b1001 A
b11 >
b11 ]
1<
b0 ?
b0 @
b0 E
b1011 '
b1011 H
b1011 J
b1011 K
1"
#88
0"
#89
b0 2
b0 D
b1100 '
b1100 H
b1100 J
b1100 K
17
b1001 4
b1001 I
b1001 L
b1001 P
b1001 S
b1001 V
b0 B
b0 9
b0 A
b0 >
b0 ]
0<
1"
#90
0"
#91
b1011 +
b1001 0
07
b0 4
b0 I
b0 L
b0 P
b0 S
b0 V
b1011001001 %
b1011001001 G
b1001 '
b1001 H
b1001 J
b1001 K
1"
#92
0"
#93
b0 +
1-
b0 0
b11 )
b11 F
b0 %
b0 G
b1010 '
b1010 H
b1010 J
b1010 K
b1001 ?
b1011 @
b1011 E
1"
#94
0"
#95
0-
b1001 2
b1001 D
b0 )
b0 F
b1001 B
b1001 9
b1001 A
b11 >
b11 ]
1<
b0 ?
b0 @
b0 E
b1011 '
b1011 H
b1011 J
b1011 K
1"
#96
0"
#97
b0 2
b0 D
b1100 '
b1100 H
b1100 J
b1100 K
17
b1001 4
b1001 I
b1001 L
b1001 P
b1001 S
b1001 V
b0 B
b0 9
b0 A
b0 >
b0 ]
0<
1"
#98
0"
#99
b1011 +
b1001 0
07
b0 4
b0 I
b0 L
b0 P
b0 S
b0 V
b1011001001 %
b1011001001 G
b1001 '
b1001 H
b1001 J
b1001 K
1"
